<?xml version="1.0" encoding="utf-8"?>
<!-- Generator: Adobe Illustrator 16.0.0, SVG Export Plug-In . SVG Version: 6.00 Build 0)  -->
<!DOCTYPE svg PUBLIC "-//W3C//DTD SVG 1.1//EN" "http://www.w3.org/Graphics/SVG/1.1/DTD/svg11.dtd">
<svg version="1.1" id="Ebene_1" xmlns="http://www.w3.org/2000/svg" xmlns:xlink="http://www.w3.org/1999/xlink" x="0px" y="0px"
	 width="80px" height="80px" viewBox="0 0 80 80" enable-background="new 0 0 80 80" xml:space="preserve">
<g>
	<path fill="#FFFFFF" d="M68.675,30.453l-0.05-0.048L44.18,16.29v4.232l20.637,11.911l0.21,0.354v28.516l-0.138,0.227l-9.768,5.636
		l-8.494,4.901l-2.153,1.243l-1.454,0.839c-0.089-2.467-0.18-4.929-0.275-7.469c-0.39-10.46-0.791-21.269-0.928-31.815h0.432v-2.568
		c1.739-0.851,2.892-2.592,2.892-4.498c0-1.772-0.925-3.408-2.43-4.331l-0.132-0.62h-0.109v-4.335h0.223v-1.632h-1.434l-0.111-0.551
		C41.141,15.859,40.772,7.067,40.496,0H39.77c-0.322,7.201-0.708,16.332-0.708,16.332l-0.106,0.548h-1.429v1.632h0.222v4.335H37.65
		l-0.146,0.616c-1.509,0.92-2.435,2.557-2.435,4.335c0,1.906,1.155,3.647,2.9,4.499v2.567h0.432
		c-0.135,10.395-0.534,21.048-0.922,31.358c-0.101,2.688-0.199,5.368-0.294,8.044l-1.456-0.841L15.036,61.474l-0.056-0.095
		l-0.004-28.402l0.36-0.636L36.043,20.41v-4.245L11.33,30.455l-0.012,32.813l0.25,0.442l5.983,3.454l18.247,10.535L39.784,80
		l0.435-0.002l4.402-2.543l0,0l23.982-13.851l0.078-0.141L68.675,30.453z"/>
	<path fill-rule="evenodd" clip-rule="evenodd" fill="#00CCFF" d="M36.342,56.768L27.46,41.322l9.208,5.285
		c0.039-1.398,0.075-2.796,0.108-4.192l-7.43-4.297l-0.007-0.056l0.025-0.073h7.503c0.01-0.547,0.021-1.095,0.029-1.642h-0.411
		v-1.484v-0.49l-17.214,0.004l-0.044,0.088l9.396,16.313l-0.022,0.103l-6.467,3.741l-0.028,0.101l1.622,2.822l0.443,0.11
		l6.258-3.597l0.102,0.026l5.558,9.608C36.175,61.397,36.26,59.087,36.342,56.768"/>
	<path fill-rule="evenodd" clip-rule="evenodd" fill="#00CCFF" d="M51.468,50.904l-0.058-0.206l9.338-16.185l-0.073-0.147
		l-16.942,0.004v0.493v1.483H43.32c0.01,0.546,0.021,1.095,0.03,1.642h7.271l0.026,0.076l-0.008,0.041l-0.039,0.047l-7.162,4.131
		c0.032,1.395,0.066,2.79,0.105,4.187l8.923-5.142l0.053,0.002l0.014,0.075l-8.677,14.998c0.081,2.323,0.165,4.638,0.249,6.939
		l5.319-9.203l0.187-0.057l6.354,3.657l0.227-0.069l1.694-2.943l-0.024-0.123L51.468,50.904z"/>
</g>
</svg>
